Copyright 1986-2018 Xilinx, Inc. All Rights Reserved.
-----------------------------------------------------------------------------------------------------------------------------
| Tool Version : Vivado v.2018.1 (lin64) Build 2188600 Wed Apr  4 18:39:19 MDT 2018
| Date         : Tue Nov 20 10:20:25 2018
| Host         : Shears running 64-bit Ubuntu 16.04.5 LTS
| Command      : report_utilization -file design_1_wrapper_utilization_placed.rpt -pb design_1_wrapper_utilization_placed.pb
| Design       : design_1_wrapper
| Device       : xczu9egffvb1156-2
| Design State : Fully Placed
-----------------------------------------------------------------------------------------------------------------------------

Utilization Design Information

Table of Contents
-----------------
1. CLB Logic
1.1 Summary of Registers by Type
2. CLB Logic Distribution
3. BLOCKRAM
4. ARITHMETIC
5. I/O
6. CLOCK
7. ADVANCED
8. CONFIGURATION
9. Primitives
10. Black Boxes
11. Instantiated Netlists

1. CLB Logic
------------

+----------------------------+-------+-------+-----------+-------+
|          Site Type         |  Used | Fixed | Available | Util% |
+----------------------------+-------+-------+-----------+-------+
| CLB LUTs                   | 16550 |     0 |    274080 |  6.04 |
|   LUT as Logic             | 13411 |     0 |    274080 |  4.89 |
|   LUT as Memory            |  3139 |     0 |    144000 |  2.18 |
|     LUT as Distributed RAM |   128 |     0 |           |       |
|     LUT as Shift Register  |  3011 |     0 |           |       |
| CLB Registers              | 22503 |     0 |    548160 |  4.11 |
|   Register as Flip Flop    | 22503 |     0 |    548160 |  4.11 |
|   Register as Latch        |     0 |     0 |    548160 |  0.00 |
| CARRY8                     |   759 |     0 |     34260 |  2.22 |
| F7 Muxes                   |   632 |     0 |    137040 |  0.46 |
| F8 Muxes                   |    96 |     0 |     68520 |  0.14 |
| F9 Muxes                   |     0 |     0 |     34260 |  0.00 |
+----------------------------+-------+-------+-----------+-------+


1.1 Summary of Registers by Type
--------------------------------

+-------+--------------+-------------+--------------+
| Total | Clock Enable | Synchronous | Asynchronous |
+-------+--------------+-------------+--------------+
| 0     |            _ |           - |            - |
| 0     |            _ |           - |          Set |
| 0     |            _ |           - |        Reset |
| 0     |            _ |         Set |            - |
| 0     |            _ |       Reset |            - |
| 0     |          Yes |           - |            - |
| 33    |          Yes |           - |          Set |
| 69    |          Yes |           - |        Reset |
| 202   |          Yes |         Set |            - |
| 22199 |          Yes |       Reset |            - |
+-------+--------------+-------------+--------------+


2. CLB Logic Distribution
-------------------------

+-------------------------------------------+-------+-------+-----------+-------+
|                 Site Type                 |  Used | Fixed | Available | Util% |
+-------------------------------------------+-------+-------+-----------+-------+
| CLB                                       |  3678 |     0 |     34260 | 10.74 |
|   CLBL                                    |  1826 |     0 |           |       |
|   CLBM                                    |  1852 |     0 |           |       |
| LUT as Logic                              | 13411 |     0 |    274080 |  4.89 |
|   using O5 output only                    |   249 |       |           |       |
|   using O6 output only                    | 10211 |       |           |       |
|   using O5 and O6                         |  2951 |       |           |       |
| LUT as Memory                             |  3139 |     0 |    144000 |  2.18 |
|   LUT as Distributed RAM                  |   128 |     0 |           |       |
|     using O5 output only                  |     0 |       |           |       |
|     using O6 output only                  |    64 |       |           |       |
|     using O5 and O6                       |    64 |       |           |       |
|   LUT as Shift Register                   |  3011 |     0 |           |       |
|     using O5 output only                  |     0 |       |           |       |
|     using O6 output only                  |  1144 |       |           |       |
|     using O5 and O6                       |  1867 |       |           |       |
| LUT Flip Flop Pairs                       | 12306 |     0 |    274080 |  4.49 |
|   fully used LUT-FF pairs                 |  2586 |       |           |       |
|   LUT-FF pairs with one unused LUT output |  8013 |       |           |       |
|   LUT-FF pairs with one unused Flip Flop  |  8698 |       |           |       |
| Unique Control Sets                       |   386 |       |           |       |
+-------------------------------------------+-------+-------+-----------+-------+
* Note: Review the Control Sets Report for more information regarding control sets.


3. BLOCKRAM
-----------

+-------------------+------+-------+-----------+-------+
|     Site Type     | Used | Fixed | Available | Util% |
+-------------------+------+-------+-----------+-------+
| Block RAM Tile    |  291 |     0 |       912 | 31.91 |
|   RAMB36/FIFO*    |   59 |     0 |       912 |  6.47 |
|     RAMB36E2 only |   59 |       |           |       |
|   RAMB18          |  464 |     0 |      1824 | 25.44 |
|     RAMB18E2 only |  464 |       |           |       |
+-------------------+------+-------+-----------+-------+
* Note: Each Block RAM Tile only has one FIFO logic available and therefore can accommodate only one FIFO36E2 or one FIFO18E2. However, if a FIFO18E2 occupies a Block RAM Tile, that tile can still accommodate a RAMB18E2


4. ARITHMETIC
-------------

+----------------+------+-------+-----------+-------+
|    Site Type   | Used | Fixed | Available | Util% |
+----------------+------+-------+-----------+-------+
| DSPs           |   84 |     0 |      2520 |  3.33 |
|   DSP48E2 only |   84 |       |           |       |
+----------------+------+-------+-----------+-------+


5. I/O
------

+------------------+------+-------+-----------+-------+
|     Site Type    | Used | Fixed | Available | Util% |
+------------------+------+-------+-----------+-------+
| Bonded IOB       |    0 |     0 |       328 |  0.00 |
| HPIOB_M          |    0 |     0 |        96 |  0.00 |
| HPIOB_S          |    0 |     0 |        96 |  0.00 |
| HDIOB_M          |    0 |     0 |        60 |  0.00 |
| HDIOB_S          |    0 |     0 |        60 |  0.00 |
| HPIOB_SNGL       |    0 |     0 |        16 |  0.00 |
| HPIOBDIFFINBUF   |    0 |     0 |        96 |  0.00 |
| HPIOBDIFFOUTBUF  |    0 |     0 |        96 |  0.00 |
| HDIOBDIFFINBUF   |    0 |     0 |        60 |  0.00 |
| BITSLICE_CONTROL |    0 |     0 |        32 |  0.00 |
| BITSLICE_RX_TX   |    0 |     0 |       208 |  0.00 |
| BITSLICE_TX      |    0 |     0 |        32 |  0.00 |
| RIU_OR           |    0 |     0 |        16 |  0.00 |
+------------------+------+-------+-----------+-------+


6. CLOCK
--------

+----------------------+------+-------+-----------+-------+
|       Site Type      | Used | Fixed | Available | Util% |
+----------------------+------+-------+-----------+-------+
| GLOBAL CLOCK BUFFERs |    1 |     0 |       404 |  0.25 |
|   BUFGCE             |    0 |     0 |       116 |  0.00 |
|   BUFGCE_DIV         |    0 |     0 |        16 |  0.00 |
|   BUFG_GT            |    0 |     0 |       168 |  0.00 |
|   BUFG_PS            |    1 |     0 |        72 |  1.39 |
|   BUFGCTRL*          |    0 |     0 |        32 |  0.00 |
| PLL                  |    0 |     0 |         8 |  0.00 |
| MMCM                 |    0 |     0 |         4 |  0.00 |
+----------------------+------+-------+-----------+-------+
* Note: Each used BUFGCTRL counts as two global buffer resources. This table does not include global clocking resources, only buffer cell usage. See the Clock Utilization Report (report_clock_utilization) for detailed accounting of global clocking resource availability.


7. ADVANCED
-----------

+-----------------+------+-------+-----------+--------+
|    Site Type    | Used | Fixed | Available |  Util% |
+-----------------+------+-------+-----------+--------+
| GTHE4_CHANNEL   |    0 |     0 |        24 |   0.00 |
| GTHE4_COMMON    |    0 |     0 |         6 |   0.00 |
| OBUFDS_GTE4     |    0 |     0 |        12 |   0.00 |
| OBUFDS_GTE4_ADV |    0 |     0 |        12 |   0.00 |
| PS8             |    1 |     0 |         1 | 100.00 |
| SYSMONE4        |    0 |     0 |         1 |   0.00 |
+-----------------+------+-------+-----------+--------+


8. CONFIGURATION
----------------

+-------------+------+-------+-----------+-------+
|  Site Type  | Used | Fixed | Available | Util% |
+-------------+------+-------+-----------+-------+
| BSCANE2     |    0 |     0 |         4 |  0.00 |
| DNA_PORTE2  |    0 |     0 |         1 |  0.00 |
| EFUSE_USR   |    0 |     0 |         1 |  0.00 |
| FRAME_ECCE4 |    0 |     0 |         1 |  0.00 |
| ICAPE3      |    0 |     0 |         2 |  0.00 |
| MASTER_JTAG |    0 |     0 |         1 |  0.00 |
| STARTUPE3   |    0 |     0 |         1 |  0.00 |
+-------------+------+-------+-----------+-------+


9. Primitives
-------------

+----------+-------+---------------------+
| Ref Name |  Used | Functional Category |
+----------+-------+---------------------+
| FDRE     | 22199 |            Register |
| LUT3     |  5688 |                 CLB |
| SRL16E   |  4411 |                 CLB |
| LUT2     |  3746 |                 CLB |
| LUT6     |  3312 |                 CLB |
| LUT4     |  2178 |                 CLB |
| LUT5     |  1285 |                 CLB |
| CARRY8   |   759 |                 CLB |
| MUXF7    |   632 |                 CLB |
| SRLC32E  |   467 |                 CLB |
| RAMB18E2 |   464 |           Block Ram |
| FDSE     |   202 |            Register |
| LUT1     |   153 |                 CLB |
| RAMD32   |   112 |                 CLB |
| MUXF8    |    96 |                 CLB |
| DSP48E2  |    84 |          Arithmetic |
| FDCE     |    69 |            Register |
| RAMS64E  |    64 |                 CLB |
| RAMB36E2 |    59 |           Block Ram |
| FDPE     |    33 |            Register |
| RAMS32   |    16 |                 CLB |
| PS8      |     1 |            Advanced |
| BUFG_PS  |     1 |               Clock |
+----------+-------+---------------------+


10. Black Boxes
---------------

+----------+------+
| Ref Name | Used |
+----------+------+


11. Instantiated Netlists
-------------------------

+------------------------------+------+
|           Ref Name           | Used |
+------------------------------+------+
| design_1_zynq_ultra_ps_e_0_0 |    1 |
| design_1_xlconcat_0_0        |    1 |
| design_1_xfft_0_0            |    1 |
| design_1_xbar_1              |    1 |
| design_1_xbar_0              |    1 |
| design_1_proc_sys_reset_0_0  |    1 |
| design_1_edge_detect_1_0     |    1 |
| design_1_axi_gpio_0_0        |    1 |
| design_1_axi_dma_0_0         |    1 |
| design_1_auto_us_1           |    1 |
| design_1_auto_us_0           |    1 |
| design_1_auto_pc_0           |    1 |
| design_1_auto_ds_0           |    1 |
+------------------------------+------+


